{
    "/js/admin.js": "/js/admin.js?id=7ddc4499b419933aca88",
    "/js/admin.js.map": "/js/admin.js.map?id=463feaefc55a8ec594a7",
    "/js/app.js": "/js/app.js?id=2403f6e192124a089ee6",
    "/css/app.css": "/css/app.css?id=eeda70f4e99dfe5edcf8",
    "/css/admin.css": "/css/admin.css?id=329bd80868f1fa98d942",
    "/js/app.js.map": "/js/app.js.map?id=f377110664d8a4271b74",
    "/css/app.css.map": "/css/app.css.map?id=328f717298a852aa869e",
    "/css/admin.css.map": "/css/admin.css.map?id=1075cb7df9f36c4d6317"
}
